{
  "id": "totally_op",
  "name": "Totally OP",
  "description": "A mod for builders.",
  "version": "1.0.0",
  "side": "universal",
  "initializer": "at.witho.totally_op.TotallyOP",
  "requires": {
    "fabric": "*"
  },
  "mixins": {
    "client": "totally_op.client.json",
    "common": "totally_op.common.json"
  }
}
